Your Mom’s House Analysis, Part I
…
# ?safely to read up                       
safe_cap <- safely(get_caption)

Based on the help documents, safely() provides an enhanced output of errors, messages, and warnings outside of the base r reporting. This function should help determine if our large API call has an errors while running.

Within the same {purrr} library, the map() function applies a function to each element of a list. Therefore, in out case, map() will apply the get_caption() function to each URL in the playlist and, by wrapping safely() around get_caption(), will provide enhanced outputs and errors.

playlist_call <- map(playlist_clean$url,
                     safe_cap)
head(playlist_call)

## [[1]]
## [[1]]$result
## # A tibble: 5,151 x 5
##    segment_id text                                     start duration vid       
##         <int> <chr>                                    <dbl>    <dbl> <chr>     
##  1          1 i'm not chrissy drip drop anymore you're  0.16     3.52 wTvMDkAZZ~
##  2          2 chrissy five drinks in oh yeah [ __ ]     1.60     3.68 wTvMDkAZZ~
##  3          3 tommy segways chrissy down the middle     3.68     2.48 wTvMDkAZZ~
##  4          4 i'm chrissy grayson                       5.28     2.80 wTvMDkAZZ~
##  5          5 chrissy [ __ ] hips chrissy pilots i'm    6.16     3.12 wTvMDkAZZ~
##  6          6 old for nine                              8.08     3.60 wTvMDkAZZ~
##  7          7 if i go over ten great dude on chrissy's  9.28     5.6  wTvMDkAZZ~
##  8          8 strikeouts it doesn't matter             11.7      8.64 wTvMDkAZZ~
##  9          9 well welcome welcome to your mom's house 14.9      5.44 wTvMDkAZZ~
## 10         10 you know people say to me they say       24.2      3.04 wTvMDkAZZ~
## # ... with 5,141 more rows
## 
## [[1]]$error
## NULL
## 
## 
## [[2]]
## [[2]]$result
## # A tibble: 4,654 x 5
##    segment_id text                                     start duration vid       
##         <int> <chr>                                    <dbl>    <dbl> <chr>     
##  1          1 oh snap there's hot gear                  0.64     5.12 dY818rfsJ~
##  2          2 merch method dot com slash tom sagura     3.04     5.84 dY818rfsJ~
##  3          3 check out all our new stuff               5.76     3.12 dY818rfsJ~
##  4          4 these club owners will take advantage as  9.92     3.04 dY818rfsJ~
##  5          5 you know                                 12.2      2.40 dY818rfsJ~
##  6          6 if you don't stand your ground i don't   13.0      2.88 dY818rfsJ~
##  7          7 know what you're talking about i don't   14.6      1.76 dY818rfsJ~
##  8          8 know                                     15.8      2.16 dY818rfsJ~
##  9          9 show business is great music             16.3      3.28 dY818rfsJ~
## 10         10 specifically always really in the        18        5.04 dY818rfsJ~
## # ... with 4,644 more rows
## 
## [[2]]$error
## NULL
## 
## 
## [[3]]
## [[3]]$result
## # A tibble: 4,310 x 5
##    segment_id text                                     start duration vid       
##         <int> <chr>                                    <dbl>    <dbl> <chr>     
##  1          1 you go there and they just feed you and   0.08     2.88 _VCG6PzLn~
##  2          2 you're like what the hell you gain        1.44     3.04 _VCG6PzLn~
##  3          3 weight in africa you're like all those    2.96     2.56 _VCG6PzLn~
##  4          4 commercials are wrong                     4.48     2.88 _VCG6PzLn~
##  5          5 yeah there's nobody who's darving here i  5.52     3.92 _VCG6PzLn~
##  6          6 was uh opening by the second by the last  7.36     3.2  _VCG6PzLn~
##  7          7 few shows with that i'm like i'm the      9.44     3.20 _VCG6PzLn~
##  8          8 only guy that got fat in africa          10.6      4.16 _VCG6PzLn~
##  9          9 and i bought the biggest pants in africa 12.6      3.68 _VCG6PzLn~
## 10         10 i remember you bought pants              14.7      2.80 _VCG6PzLn~
## # ... with 4,300 more rows
## 
## [[3]]$error
## NULL
## 
## 
## [[4]]
## [[4]]$result
## # A tibble: 6,471 x 5
##    segment_id text                                    start duration vid        
##         <int> <chr>                                   <dbl>    <dbl> <chr>      
##  1          1 if you missed episode one of ymh live    0.24     4.08 J4hQnfu9nkY
##  2          2 you can watch it                         3.28     3.76 J4hQnfu9nkY
##  3          3 now they tried to fire us but we have    4.32     5.68 J4hQnfu9nkY
##  4          4 the material so head to tomsegura.com    7.04     6.08 J4hQnfu9nkY
##  5          5 rentals and check out the show that was 10        5.44 J4hQnfu9nkY
##  6          6 too hot for the web this is what i like 13.1      3.04 J4hQnfu9nkY
##  7          7 about this one                          15.4      3.44 J4hQnfu9nkY
##  8          8 is that it's clearly like this is his   16.2      4.4  J4hQnfu9nkY
##  9          9 art because he's calling it mark        18.9      4.72 J4hQnfu9nkY
## 10         10 martin manure tank right like it's like 20.6      4.72 J4hQnfu9nkY
## # ... with 6,461 more rows
## 
## [[4]]$error
## NULL
## 
## 
## [[5]]
## [[5]]$result
## # A tibble: 4,619 x 5
##    segment_id text                                     start duration vid       
##         <int> <chr>                                    <dbl>    <dbl> <chr>     
##  1          1 don't break these okay                    0.16     2.96 bGklkg3m-~
##  2          2 well yeah because you don't know          3.36     3.36 bGklkg3m-~
##  3          3 anything about fashion those are 3 500    4.24     5.2  bGklkg3m-~
##  4          4 are you serious they're crunchy oh my     6.72     3.6  bGklkg3m-~
##  5          5 god                                       9.44     4.08 bGklkg3m-~
##  6          6 you look so attached so                  10.3      6.72 bGklkg3m-~
##  7          7 cool so fashion feels like ski goggles   13.5      9.04 bGklkg3m-~
##  8          8 well welcome welcome to your mom's house 17.0      5.52 bGklkg3m-~
##  9          9 [Music]                                  25.0      3.31 bGklkg3m-~
## 10         10 this episode of your mom's house is      26.6      3.76 bGklkg3m-~
## # ... with 4,609 more rows
## 
## [[5]]$error
## NULL
## 
## 
## [[6]]
## [[6]]$result
## # A tibble: 4,680 x 5
##    segment_id text                                     start duration vid       
##         <int> <chr>                                    <dbl>    <dbl> <chr>     
##  1          1 what celebrity would you go out with      0.08     4.32 zSRBGlyis~
##  2          2 gosh i'm a celebrity honestly i've never  2.48     4    zSRBGlyis~
##  3          3 thought about men wise well we speak the  4.4      5.36 zSRBGlyis~
##  4          4 same language talk about chicks           6.48     3.28 zSRBGlyis~
##  5          5 well welcome welcome to your mom's house 10.6      7.36 zSRBGlyis~
##  6          6 [Music]                                  18.4      4.68 zSRBGlyis~
##  7          7 this episode is brought to you by saatva 20.2      4.88 zSRBGlyis~
##  8          8 go to saatva.com                         23.1      6.4  zSRBGlyis~
##  9          9 the [ __ ] to get 225 off the new solai~ 25.1      6.32 zSRBGlyis~
## 10         10 mattress and sci-fi mattress company     29.5      3.92 zSRBGlyis~
## # ... with 4,670 more rows
## 
## [[6]]$error
## NULL
…
